<?xml version="1.0" standalone="no"?>
<!DOCTYPE svg PUBLIC "-//W3C//DTD SVG 20010904//EN"
 "http://www.w3.org/TR/2001/REC-SVG-20010904/DTD/svg10.dtd">
<svg version="1.0" xmlns="http://www.w3.org/2000/svg"
 width="400.000000pt" height="400.000000pt" viewBox="0 0 400.000000 400.000000"
 preserveAspectRatio="xMidYMid meet">

<g transform="translate(0.000000,400.000000) scale(0.100000,-0.100000)"
fill="#000000" stroke="none">
<path d="M1767 3980 c-579 -73 -1095 -391 -1419 -874 -442 -660 -447 -1521
-12 -2194 36 -57 68 -101 70 -99 3 2 -2 35 -10 73 -40 189 -51 317 -50 569 0
212 4 268 22 373 91 501 321 915 733 1317 292 285 649 538 1077 763 73 38 109
62 101 67 -18 11 -431 15 -512 5z"/>
<path d="M2290 3869 c-79 -120 -111 -218 -117 -359 -9 -182 32 -341 146 -571
220 -442 689 -972 1391 -1572 74 -63 138 -113 142 -111 13 8 80 228 104 343
71 345 49 699 -65 1042 -212 634 -742 1122 -1400 1290 -62 16 -119 29 -127 29
-8 0 -41 -41 -74 -91z"/>
<path d="M2155 1464 c-89 -10 -265 -47 -355 -76 -375 -119 -708 -385 -967
-773 -61 -91 -97 -155 -91 -159 2 -2 37 -28 78 -58 532 -386 1199 -492 1815
-287 475 158 853 473 1118 930 l27 47 -78 37 c-215 103 -540 221 -744 270
-217 52 -332 67 -553 70 -115 2 -228 1 -250 -1z"/>
</g>
</svg>
